{"username":"shubham","pwd":"shubham","email":"jay.wot2021@gmail.co","phone":"9494949494","submit":"register"}
{"username":"shubham sedani","pwd":"shubham","email":"shubhams.wot2021@gmail.com","phone":"9426353037","submit":"register"}
{"username":"karan","pwd":"karan","email":"karan.wot@gmail.com","phone":"9425252523","submit":"register"}
{"username":"test","pwd":"test","email":"test@gmail.com","phone":"9426353037","submit":"register"}